<?xml version="1.0" encoding="utf-8"?><graphml xmlns="http://graphml.graphdrawing.org/xmlns" xmlns:xsi="http://www.w3.org/2001/XMLSchema-instance" xsi:schemaLocation="http://graphml.graphdrawing.org/xmlns http://graphml.graphdrawing.org/xmlns/1.0/graphml.xsd">
  <key attr.name="name" attr.type="string" for="graph" id="d0" />
  <graph edgedefault="undirected">
    <data key="d0">3-Regular graph #18-641</data>
    <node id="11" />
    <node id="10" />
    <node id="13" />
    <node id="12" />
    <node id="15" />
    <node id="14" />
    <node id="17" />
    <node id="16" />
    <node id="1" />
    <node id="0" />
    <node id="3" />
    <node id="2" />
    <node id="5" />
    <node id="4" />
    <node id="7" />
    <node id="6" />
    <node id="9" />
    <node id="8" />
    <edge source="11" target="10" />
    <edge source="11" target="2" />
    <edge source="11" target="16" />
    <edge source="10" target="12" />
    <edge source="10" target="15" />
    <edge source="13" target="2" />
    <edge source="13" target="14" />
    <edge source="13" target="7" />
    <edge source="12" target="3" />
    <edge source="12" target="5" />
    <edge source="15" target="7" />
    <edge source="15" target="6" />
    <edge source="14" target="0" />
    <edge source="14" target="8" />
    <edge source="17" target="1" />
    <edge source="17" target="5" />
    <edge source="17" target="16" />
    <edge source="16" target="6" />
    <edge source="1" target="0" />
    <edge source="1" target="4" />
    <edge source="0" target="3" />
    <edge source="3" target="2" />
    <edge source="5" target="9" />
    <edge source="4" target="9" />
    <edge source="4" target="7" />
    <edge source="6" target="8" />
    <edge source="9" target="8" />
  </graph>
</graphml>
