<?xml version="1.0" encoding="utf-8"?><graphml xmlns="http://graphml.graphdrawing.org/xmlns" xmlns:xsi="http://www.w3.org/2001/XMLSchema-instance" xsi:schemaLocation="http://graphml.graphdrawing.org/xmlns http://graphml.graphdrawing.org/xmlns/1.0/graphml.xsd">
  <key attr.name="name" attr.type="string" for="graph" id="d0" />
  <graph edgedefault="undirected">
    <data key="d0">4th Dimension Hypercube</data>
    <node id="(0, 0, 0, 0)" />
    <node id="(0, 0, 0, 1)" />
    <node id="(1, 1, 1, 1)" />
    <node id="(1, 1, 1, 0)" />
    <node id="(1, 1, 0, 1)" />
    <node id="(1, 0, 1, 0)" />
    <node id="(1, 0, 1, 1)" />
    <node id="(1, 1, 0, 0)" />
    <node id="(0, 0, 1, 0)" />
    <node id="(0, 1, 1, 0)" />
    <node id="(0, 0, 1, 1)" />
    <node id="(1, 0, 0, 0)" />
    <node id="(0, 1, 0, 1)" />
    <node id="(0, 1, 1, 1)" />
    <node id="(0, 1, 0, 0)" />
    <node id="(1, 0, 0, 1)" />
    <edge source="(0, 0, 0, 0)" target="(1, 0, 0, 0)" />
    <edge source="(0, 0, 0, 0)" target="(0, 0, 1, 0)" />
    <edge source="(0, 0, 0, 0)" target="(0, 0, 0, 1)" />
    <edge source="(0, 0, 0, 0)" target="(0, 1, 0, 0)" />
    <edge source="(0, 0, 0, 1)" target="(1, 0, 0, 1)" />
    <edge source="(0, 0, 0, 1)" target="(0, 0, 1, 1)" />
    <edge source="(0, 0, 0, 1)" target="(0, 1, 0, 1)" />
    <edge source="(1, 1, 1, 1)" target="(1, 1, 0, 1)" />
    <edge source="(1, 1, 1, 1)" target="(1, 0, 1, 1)" />
    <edge source="(1, 1, 1, 1)" target="(0, 1, 1, 1)" />
    <edge source="(1, 1, 1, 1)" target="(1, 1, 1, 0)" />
    <edge source="(1, 1, 1, 0)" target="(1, 0, 1, 0)" />
    <edge source="(1, 1, 1, 0)" target="(0, 1, 1, 0)" />
    <edge source="(1, 1, 1, 0)" target="(1, 1, 0, 0)" />
    <edge source="(1, 1, 0, 1)" target="(0, 1, 0, 1)" />
    <edge source="(1, 1, 0, 1)" target="(1, 1, 0, 0)" />
    <edge source="(1, 1, 0, 1)" target="(1, 0, 0, 1)" />
    <edge source="(1, 0, 1, 0)" target="(1, 0, 0, 0)" />
    <edge source="(1, 0, 1, 0)" target="(0, 0, 1, 0)" />
    <edge source="(1, 0, 1, 0)" target="(1, 0, 1, 1)" />
    <edge source="(1, 0, 1, 1)" target="(0, 0, 1, 1)" />
    <edge source="(1, 0, 1, 1)" target="(1, 0, 0, 1)" />
    <edge source="(1, 1, 0, 0)" target="(1, 0, 0, 0)" />
    <edge source="(1, 1, 0, 0)" target="(0, 1, 0, 0)" />
    <edge source="(0, 0, 1, 0)" target="(0, 1, 1, 0)" />
    <edge source="(0, 0, 1, 0)" target="(0, 0, 1, 1)" />
    <edge source="(0, 1, 1, 0)" target="(0, 1, 0, 0)" />
    <edge source="(0, 1, 1, 0)" target="(0, 1, 1, 1)" />
    <edge source="(0, 0, 1, 1)" target="(0, 1, 1, 1)" />
    <edge source="(1, 0, 0, 0)" target="(1, 0, 0, 1)" />
    <edge source="(0, 1, 0, 1)" target="(0, 1, 1, 1)" />
    <edge source="(0, 1, 0, 1)" target="(0, 1, 0, 0)" />
  </graph>
</graphml>
