<?xml version="1.0" encoding="utf-8"?><graphml xmlns="http://graphml.graphdrawing.org/xmlns" xmlns:xsi="http://www.w3.org/2001/XMLSchema-instance" xsi:schemaLocation="http://graphml.graphdrawing.org/xmlns http://graphml.graphdrawing.org/xmlns/1.0/graphml.xsd">
  <key attr.name="name" attr.type="string" for="graph" id="d0" />
  <graph edgedefault="undirected">
    <data key="d0">Double-star Snark</data>
    <node id="24" />
    <node id="25" />
    <node id="26" />
    <node id="27" />
    <node id="20" />
    <node id="21" />
    <node id="22" />
    <node id="23" />
    <node id="28" />
    <node id="29" />
    <node id="1" />
    <node id="0" />
    <node id="3" />
    <node id="2" />
    <node id="5" />
    <node id="4" />
    <node id="7" />
    <node id="6" />
    <node id="9" />
    <node id="8" />
    <node id="11" />
    <node id="10" />
    <node id="13" />
    <node id="12" />
    <node id="15" />
    <node id="14" />
    <node id="17" />
    <node id="16" />
    <node id="19" />
    <node id="18" />
    <edge source="24" target="25" />
    <edge source="24" target="20" />
    <edge source="24" target="17" />
    <edge source="25" target="10" />
    <edge source="25" target="26" />
    <edge source="26" target="15" />
    <edge source="26" target="18" />
    <edge source="27" target="28" />
    <edge source="27" target="20" />
    <edge source="27" target="23" />
    <edge source="20" target="19" />
    <edge source="21" target="22" />
    <edge source="21" target="17" />
    <edge source="21" target="29" />
    <edge source="22" target="7" />
    <edge source="22" target="23" />
    <edge source="23" target="15" />
    <edge source="28" target="13" />
    <edge source="28" target="29" />
    <edge source="29" target="18" />
    <edge source="1" target="0" />
    <edge source="1" target="2" />
    <edge source="1" target="16" />
    <edge source="0" target="5" />
    <edge source="0" target="14" />
    <edge source="3" target="8" />
    <edge source="3" target="2" />
    <edge source="3" target="4" />
    <edge source="2" target="12" />
    <edge source="5" target="4" />
    <edge source="5" target="6" />
    <edge source="4" target="19" />
    <edge source="7" target="8" />
    <edge source="7" target="6" />
    <edge source="6" target="11" />
    <edge source="9" target="8" />
    <edge source="9" target="14" />
    <edge source="9" target="10" />
    <edge source="11" target="10" />
    <edge source="11" target="12" />
    <edge source="13" target="12" />
    <edge source="13" target="14" />
    <edge source="15" target="16" />
    <edge source="17" target="16" />
    <edge source="19" target="18" />
  </graph>
</graphml>
