<?xml version="1.0" encoding="utf-8"?><graphml xmlns="http://graphml.graphdrawing.org/xmlns" xmlns:xsi="http://www.w3.org/2001/XMLSchema-instance" xsi:schemaLocation="http://graphml.graphdrawing.org/xmlns http://graphml.graphdrawing.org/xmlns/1.0/graphml.xsd">
  <key attr.name="name" attr.type="string" for="graph" id="d0" />
  <graph edgedefault="undirected">
    <data key="d0">Tutte's Graph</data>
    <node id="42" />
    <node id="29" />
    <node id="24" />
    <node id="25" />
    <node id="26" />
    <node id="27" />
    <node id="20" />
    <node id="21" />
    <node id="22" />
    <node id="23" />
    <node id="44" />
    <node id="45" />
    <node id="28" />
    <node id="43" />
    <node id="40" />
    <node id="41" />
    <node id="1" />
    <node id="0" />
    <node id="3" />
    <node id="2" />
    <node id="5" />
    <node id="4" />
    <node id="7" />
    <node id="6" />
    <node id="9" />
    <node id="8" />
    <node id="13" />
    <node id="12" />
    <node id="11" />
    <node id="10" />
    <node id="39" />
    <node id="38" />
    <node id="15" />
    <node id="14" />
    <node id="17" />
    <node id="16" />
    <node id="19" />
    <node id="18" />
    <node id="31" />
    <node id="30" />
    <node id="37" />
    <node id="36" />
    <node id="35" />
    <node id="34" />
    <node id="33" />
    <node id="32" />
    <edge source="42" target="45" />
    <edge source="42" target="43" />
    <edge source="42" target="41" />
    <edge source="29" target="5" />
    <edge source="29" target="30" />
    <edge source="29" target="28" />
    <edge source="24" target="32" />
    <edge source="24" target="23" />
    <edge source="24" target="25" />
    <edge source="25" target="26" />
    <edge source="25" target="31" />
    <edge source="26" target="1" />
    <edge source="26" target="33" />
    <edge source="27" target="6" />
    <edge source="27" target="28" />
    <edge source="27" target="23" />
    <edge source="20" target="19" />
    <edge source="20" target="21" />
    <edge source="20" target="41" />
    <edge source="21" target="22" />
    <edge source="21" target="23" />
    <edge source="22" target="15" />
    <edge source="22" target="40" />
    <edge source="44" target="43" />
    <edge source="44" target="40" />
    <edge source="44" target="16" />
    <edge source="45" target="19" />
    <edge source="45" target="18" />
    <edge source="28" target="32" />
    <edge source="43" target="17" />
    <edge source="40" target="41" />
    <edge source="1" target="0" />
    <edge source="1" target="4" />
    <edge source="0" target="3" />
    <edge source="0" target="2" />
    <edge source="3" target="19" />
    <edge source="3" target="18" />
    <edge source="2" target="11" />
    <edge source="2" target="10" />
    <edge source="5" target="4" />
    <edge source="5" target="6" />
    <edge source="4" target="33" />
    <edge source="7" target="8" />
    <edge source="7" target="14" />
    <edge source="7" target="6" />
    <edge source="9" target="8" />
    <edge source="9" target="37" />
    <edge source="9" target="10" />
    <edge source="8" target="38" />
    <edge source="13" target="12" />
    <edge source="13" target="15" />
    <edge source="13" target="14" />
    <edge source="12" target="11" />
    <edge source="12" target="35" />
    <edge source="11" target="39" />
    <edge source="10" target="39" />
    <edge source="39" target="36" />
    <edge source="38" target="37" />
    <edge source="38" target="34" />
    <edge source="15" target="16" />
    <edge source="14" target="34" />
    <edge source="17" target="18" />
    <edge source="17" target="16" />
    <edge source="31" target="30" />
    <edge source="31" target="32" />
    <edge source="30" target="33" />
    <edge source="37" target="36" />
    <edge source="36" target="35" />
    <edge source="35" target="34" />
  </graph>
</graphml>
